Relational Data Models • dm
…
In the classical {dplyr} notation, you would need three left_join() calls to merge the flights table gradually to the airlines, planes and airports tables to create one wide data frame:

library(tidyverse)
library(nycflights13)

flights %>%
  left_join(airlines, by = "carrier") %>%
  left_join(planes, by = "tailnum") %>%
  left_join(airports, by = c("origin" = "faa"))

#> # A tibble: 336,776 x 35
#>    year.x month   day dep_time sched_dep_time dep_delay arr_time
#>     <int> <int> <int>    <int>          <int>     <dbl>    <int>
#>  1   2013     1     1      517            515         2      830
#>  2   2013     1     1      533            529         4      850
#>  3   2013     1     1      542            540         2      923
#>  4   2013     1     1      544            545        -1     1004
#>  5   2013     1     1      554            600        -6      812
#>  6   2013     1     1      554            558        -4      740
#>  7   2013     1     1      555            600        -5      913
#>  8   2013     1     1      557            600        -3      709
#>  9   2013     1     1      557            600        -3      838
#> 10   2013     1     1      558            600        -2      753
#> # … with 336,766 more rows, and 28 more variables: sched_arr_time <int>,
#> #   arr_delay <dbl>, carrier <chr>, flight <int>, tailnum <chr>,
#> #   origin <chr>, dest <chr>, air_time <dbl>, distance <dbl>, hour <dbl>,
#> #   minute <dbl>, time_hour <dttm>, name.x <chr>, year.y <int>,
#> #   type <chr>, manufacturer <chr>, model <chr>, engines <int>,
#> #   seats <int>, speed <int>, engine <chr>, name.y <chr>, lat <dbl>,
#> #   lon <dbl>, alt <dbl>, tz <dbl>, dst <chr>, tzone <chr>

With the {dm} package, you would create a dm object. After that you would be able to use the links between the tables as often as you wish, without explicitly referring to the relations ever again.

For the example data set, you can use dm_nycflights13() to create the dm object, and a single command for merging the tables. The task of joining the four flights, airlines, planes and airports tables then boils down to:

library(dm)

dm_nycflights13() %>%
  dm_flatten_to_tbl(start = flights)
#> Renamed columns:
#> * year -> flights.year, planes.year
#> * name -> airlines.name, airports.name

#> # A tibble: 11,227 x 35
#>    flights.year month   day dep_time sched_dep_time dep_delay arr_time
#>           <int> <int> <int>    <int>          <int>     <dbl>    <int>
#>  1         2013     1    10        3           2359         4      426
#>  2         2013     1    10       16           2359        17      447
#>  3         2013     1    10      450            500       -10      634
#>  4         2013     1    10      520            525        -5      813
#>  5         2013     1    10      530            530         0      824
#>  6         2013     1    10      531            540        -9      832
#>  7         2013     1    10      535            540        -5     1015
#>  8         2013     1    10      546            600       -14      645
#>  9         2013     1    10      549            600       -11      652
#> 10         2013     1    10      550            600       -10      649
#> # … with 11,217 more rows, and 28 more variables: sched_arr_time <int>,
#> #   arr_delay <dbl>, carrier <chr>, flight <int>, tailnum <chr>,
#> #   origin <chr>, dest <chr>, air_time <dbl>, distance <dbl>, hour <dbl>,
#> #   minute <dbl>, time_hour <dttm>, airlines.name <chr>,
#> #   airports.name <chr>, lat <dbl>, lon <dbl>, alt <dbl>, tz <dbl>,
#> #   dst <chr>, tzone <chr>, planes.year <int>, type <chr>,
#> #   manufacturer <chr>, model <chr>, engines <int>, seats <int>,
#> #   speed <int>, engine <chr>
…
dm_nycflights13(cycle = FALSE) %>%
  dm_filter(planes, year == 2000, manufacturer == "BOEING") %>%
  dm_apply_filters() %>%
  dm_get_tables() %>%
  map_int(nrow)
#> airlines airports  flights   planes  weather 
#>        4        3      220      134      861

For joining two tables using their relationship defined in the dm, you can use dm_join_to_tbl():

dm_nycflights13(cycle = FALSE) %>%
  dm_join_to_tbl(airports, flights, join = semi_join)

#> # A tibble: 11,227 x 19
#>     year month   day dep_time sched_dep_time dep_delay arr_time
#>    <int> <int> <int>    <int>          <int>     <dbl>    <int>
#>  1  2013     1    10        3           2359         4      426
#>  2  2013     1    10       16           2359        17      447
#>  3  2013     1    10      450            500       -10      634
#>  4  2013     1    10      520            525        -5      813
#>  5  2013     1    10      530            530         0      824
#>  6  2013     1    10      531            540        -9      832
#>  7  2013     1    10      535            540        -5     1015
#>  8  2013     1    10      546            600       -14      645
#>  9  2013     1    10      549            600       -11      652
#> 10  2013     1    10      550            600       -10      649
#> # … with 11,217 more rows, and 12 more variables: sched_arr_time <int>,
#> #   arr_delay <dbl>, carrier <chr>, flight <int>, tailnum <chr>,
#> #   origin <chr>, dest <chr>, air_time <dbl>, distance <dbl>, hour <dbl>,
#> #   minute <dbl>, time_hour <dttm>
…
