…
dm %>%
  dm_flatten_to_tbl(flights)
#> Renaming ambiguous columns: %>%
#>   dm_rename(flights, year.flights = year) %>%
#>   dm_rename(flights, month.flights = month) %>%
#>   dm_rename(flights, day.flights = day) %>%
#>   dm_rename(flights, hour.flights = hour) %>%
#>   dm_rename(airlines, name.airlines = name) %>%
#>   dm_rename(airports, name.airports = name) %>%
#>   dm_rename(planes, year.planes = year) %>%
#>   dm_rename(weather, year.weather = year) %>%
#>   dm_rename(weather, month.weather = month) %>%
#>   dm_rename(weather, day.weather = day) %>%
#>   dm_rename(weather, hour.weather = hour)
#> # A tibble: 1,761 × 48
#>    year.flights month.…¹ day.f…² dep_t…³ sched…⁴ dep_d…⁵ arr_t…⁶ sched…⁷ arr_d…⁸
#>           <int>    <int>   <int>   <int>   <int>   <dbl>   <int>   <int>   <dbl>
#>  1         2013        1      10       3    2359       4     426     437     -11
#>  2         2013        1      10      16    2359      17     447     444       3
#>  3         2013        1      10     450     500     -10     634     648     -14
#>  4         2013        1      10     520     525      -5     813     820      -7
#>  5         2013        1      10     530     530       0     824     829      -5
#>  6         2013        1      10     531     540      -9     832     850     -18
#>  7         2013        1      10     535     540      -5    1015    1017      -2
#>  8         2013        1      10     546     600     -14     645     709     -24
#>  9         2013        1      10     549     600     -11     652     724     -32
#> 10         2013        1      10     550     600     -10     649     703     -14
#> # ℹ 1,751 more rows
#> # ℹ abbreviated names: ¹​month.flights, ²​day.flights, ³​dep_time,
#> #   ⁴​sched_dep_time, ⁵​dep_delay, ⁶​arr_time, ⁷​sched_arr_time, ⁸​arr_delay
#> # ℹ 39 more variables: carrier <chr>, flight <int>, tailnum <chr>,
#> #   origin <chr>, dest <chr>, air_time <dbl>, distance <dbl>,
#> #   hour.flights <dbl>, minute <dbl>, time_hour <dttm>, name.airlines <chr>,
#> #   name.airports <chr>, lat <dbl>, lon <dbl>, alt <dbl>, tz <dbl>, dst <chr>,
#> #   tzone <chr>, year.planes <int>, type <chr>, manufacturer <chr>,
#> #   model <chr>, engines <int>, seats <int>, speed <int>, engine <chr>,
…
