…
      $weather$uuid
      [1] "0a090204-0108-0b00-0c0d-0705060e0f03"
      
      

# `new_keyed_tbl()` formatting

    Code
      keyed_tbl_impl(dm_nycflights13(cycle = TRUE), "flights")
    Output
      # A tibble: 1,761 x 19
      # Keys:     --- | 0 | 5
          year month   day dep_time sched_dep_time dep_delay arr_time sched_arr_time
         <int> <int> <int>    <int>          <int>     <dbl>    <int>          <int>
       1  2013     1    10        3           2359         4      426            437
       2  2013     1    10       16           2359        17      447            444
       3  2013     1    10      450            500       -10      634            648
       4  2013     1    10      520            525        -5      813            820
       5  2013     1    10      530            530         0      824            829
       6  2013     1    10      531            540        -9      832            850
       7  2013     1    10      535            540        -5     1015           1017
       8  2013     1    10      546            600       -14      645            709
       9  2013     1    10      549            600       -11      652            724
      10  2013     1    10      550            600       -10      649            703
      # ... with 1,751 more rows, and 11 more variables: arr_delay <dbl>,
      #   carrier <chr>, flight <int>, tailnum <chr>, origin <chr>, dest <chr>,
      #   air_time <dbl>, distance <dbl>, hour <dbl>, minute <dbl>, time_hour <dttm>
    Code
      keyed_tbl_impl(dm_nycflights13(cycle = TRUE), "airports")
    Output
      # A tibble: 86 x 8
      # Keys:     `faa` | 2 | 0
         faa   name                                 lat    lon   alt    tz dst   tzone
         <chr> <chr>                              <dbl>  <dbl> <dbl> <dbl> <chr> <chr>
       1 ALB   Albany Intl                         42.7  -73.8   285    -5 A     Amer~
       2 ATL   Hartsfield Jackson Atlanta Intl     33.6  -84.4  1026    -5 A     Amer~
       3 AUS   Austin Bergstrom Intl               30.2  -97.7   542    -6 A     Amer~
       4 BDL   Bradley Intl                        41.9  -72.7   173    -5 A     Amer~
       5 BHM   Birmingham Intl                     33.6  -86.8   644    -6 A     Amer~
       6 BNA   Nashville Intl                      36.1  -86.7   599    -6 A     Amer~
       7 BOS   General Edward Lawrence Logan Intl  42.4  -71.0    19    -5 A     Amer~
       8 BTV   Burlington Intl                     44.5  -73.2   335    -5 A     Amer~
       9 BUF   Buffalo Niagara Intl                42.9  -78.7   724    -5 A     Amer~
      10 BUR   Bob Hope                            34.2 -118.    778    -8 A     Amer~
      # ... with 76 more rows
…
      
      $by
        a 
      "b" 
      

# left join works as expected with keyed tables

    Code
      dm <- dm_nycflights13()
      keyed_tbl_impl(dm, "weather") %>% left_join(keyed_tbl_impl(dm, "flights"))
    Output
      # A tibble: 1,800 x 32
      # Keys:     `origin`, `time_hour` | 1 | 0
         origin year.x month.x day.x hour.x  temp  dewp humid wind_dir wind_speed
         <chr>   <int>   <int> <int>  <int> <dbl> <dbl> <dbl>    <dbl>      <dbl>
       1 EWR      2013       1    10      0  41    32    70.1      230       8.06
       2 EWR      2013       1    10      1  39.0  30.0  69.9      210       9.21
       3 EWR      2013       1    10      2  39.0  28.9  66.8      230       6.90
       4 EWR      2013       1    10      3  39.9  27.0  59.5      270       5.75
       5 EWR      2013       1    10      4  41    26.1  55.0      320       6.90
       6 EWR      2013       1    10      5  41    26.1  55.0      300      12.7 
       7 EWR      2013       1    10      5  41    26.1  55.0      300      12.7 
       8 EWR      2013       1    10      6  39.9  25.0  54.8      280       6.90
       9 EWR      2013       1    10      6  39.9  25.0  54.8      280       6.90
      10 EWR      2013       1    10      6  39.9  25.0  54.8      280       6.90
      # ... with 1,790 more rows, and 22 more variables: wind_gust <dbl>,
      #   precip <dbl>, pressure <dbl>, visib <dbl>, time_hour <dttm>, year.y <int>,
      #   month.y <int>, day.y <int>, dep_time <int>, sched_dep_time <int>,
      #   dep_delay <dbl>, arr_time <int>, sched_arr_time <int>, arr_delay <dbl>,
      #   carrier <chr>, flight <int>, tailnum <chr>, dest <chr>, air_time <dbl>,
      #   distance <dbl>, hour.y <dbl>, minute <dbl>
…
# group_by for keyed tables produces expected output

    Code
      dm <- dm_nycflights13(cycle = TRUE)
      keyed_tbl_impl(dm, "flights") %>% group_by(month)
    Output
      # A tibble: 1,761 x 19
      # Groups:   month [2]
      # Keys:     --- | 0 | 5
          year month   day dep_time sched_dep_time dep_delay arr_time sched_arr_time
         <int> <int> <int>    <int>          <int>     <dbl>    <int>          <int>
       1  2013     1    10        3           2359         4      426            437
       2  2013     1    10       16           2359        17      447            444
       3  2013     1    10      450            500       -10      634            648
       4  2013     1    10      520            525        -5      813            820
       5  2013     1    10      530            530         0      824            829
       6  2013     1    10      531            540        -9      832            850
       7  2013     1    10      535            540        -5     1015           1017
       8  2013     1    10      546            600       -14      645            709
       9  2013     1    10      549            600       -11      652            724
      10  2013     1    10      550            600       -10      649            703
      # ... with 1,751 more rows, and 11 more variables: arr_delay <dbl>,
      #   carrier <chr>, flight <int>, tailnum <chr>, origin <chr>, dest <chr>,
      #   air_time <dbl>, distance <dbl>, hour <dbl>, minute <dbl>, time_hour <dttm>
    Code
      keyed_tbl_impl(dm, "airports") %>% group_by(tzone)
    Output
      # A tibble: 86 x 8
      # Groups:   tzone [6]
      # Keys:     `faa` | 2 | 0
         faa   name                                 lat    lon   alt    tz dst   tzone
         <chr> <chr>                              <dbl>  <dbl> <dbl> <dbl> <chr> <chr>
       1 ALB   Albany Intl                         42.7  -73.8   285    -5 A     Amer~
       2 ATL   Hartsfield Jackson Atlanta Intl     33.6  -84.4  1026    -5 A     Amer~
       3 AUS   Austin Bergstrom Intl               30.2  -97.7   542    -6 A     Amer~
       4 BDL   Bradley Intl                        41.9  -72.7   173    -5 A     Amer~
       5 BHM   Birmingham Intl                     33.6  -86.8   644    -6 A     Amer~
       6 BNA   Nashville Intl                      36.1  -86.7   599    -6 A     Amer~
       7 BOS   General Edward Lawrence Logan Intl  42.4  -71.0    19    -5 A     Amer~
       8 BTV   Burlington Intl                     44.5  -73.2   335    -5 A     Amer~
       9 BUF   Buffalo Niagara Intl                42.9  -78.7   724    -5 A     Amer~
      10 BUR   Bob Hope                            34.2 -118.    778    -8 A     Amer~
      # ... with 76 more rows
    Code
      keyed_tbl_impl(dm, "airports") %>% group_by(faa)
    Output
      # A tibble: 86 x 8
      # Groups:   faa [86]
      # Keys:     `faa` | 2 | 0
         faa   name                                 lat    lon   alt    tz dst   tzone
         <chr> <chr>                              <dbl>  <dbl> <dbl> <dbl> <chr> <chr>
       1 ALB   Albany Intl                         42.7  -73.8   285    -5 A     Amer~
       2 ATL   Hartsfield Jackson Atlanta Intl     33.6  -84.4  1026    -5 A     Amer~
       3 AUS   Austin Bergstrom Intl               30.2  -97.7   542    -6 A     Amer~
       4 BDL   Bradley Intl                        41.9  -72.7   173    -5 A     Amer~
       5 BHM   Birmingham Intl                     33.6  -86.8   644    -6 A     Amer~
       6 BNA   Nashville Intl                      36.1  -86.7   599    -6 A     Amer~
       7 BOS   General Edward Lawrence Logan Intl  42.4  -71.0    19    -5 A     Amer~
       8 BTV   Burlington Intl                     44.5  -73.2   335    -5 A     Amer~
       9 BUF   Buffalo Niagara Intl                42.9  -78.7   724    -5 A     Amer~
      10 BUR   Bob Hope                            34.2 -118.    778    -8 A     Amer~
      # ... with 76 more rows
…
