Getting Started • dm
…
With dm_apply_filters(), you can apply all filters and therefore update all tables in the dm, so that they contain only the rows that are relevant to the filters. The effect of the filters can be seen when counting the rows:

us_flights_from_jfk <- dm_apply_filters(us_flights_from_jfk_prepared)
us_flights_from_jfk %>%
  dm_get_tables() %>%
  map_int(nrow)
#> airlines airports  flights   planes  weather 
#>        1        1       95       67      861

Alternatively, you can just pull out one of the tables from dm to answer the question which planes were used to service the US Airways flights that departed from JFK airport:

dm_apply_filters_to_tbl(us_flights_from_jfk, "planes")

#> # A tibble: 67 x 9
#>    tailnum  year type       manufacturer  model  engines seats speed engine
#>    <chr>   <int> <chr>      <chr>         <chr>    <int> <int> <int> <chr> 
#>  1 N102UW   1998 Fixed win… AIRBUS INDUS… A320-…       2   182    NA Turbo…
#>  2 N107US   1999 Fixed win… AIRBUS INDUS… A320-…       2   182    NA Turbo…
#>  3 N110UW   1999 Fixed win… AIRBUS INDUS… A320-…       2   182    NA Turbo…
#>  4 N111US   1999 Fixed win… AIRBUS INDUS… A320-…       2   182    NA Turbo…
#>  5 N112US   1999 Fixed win… AIRBUS INDUS… A320-…       2   182    NA Turbo…
#>  6 N113UW   1999 Fixed win… AIRBUS INDUS… A320-…       2   182    NA Turbo…
#>  7 N126UW   2009 Fixed win… AIRBUS        A320-…       2   182    NA Turbo…
#>  8 N152UW   2013 Fixed win… AIRBUS        A321-…       2   199    NA Turbo…
#>  9 N154UW   2013 Fixed win… AIRBUS        A321-…       2   199    NA Turbo…
#> 10 N167US   2001 Fixed win… AIRBUS INDUS… A321-…       2   199    NA Turbo…
#> # … with 57 more rows
…
The {dm} code is leaner because the foreign key relations are encoded in the object.

Mind, that if you access a table via tbl.dm(), $.dm() or [[.dm(), filter conditions set for other tables are ignored.

Joining two tables

The dm_join_to_tbl() function joins two immediately related tables in a data model. The definition of the primary and foreign key constraints is used to define the relationship.

flights_dm_with_keys %>%
  dm_join_to_tbl(airlines, flights, join = left_join)

#> # A tibble: 11,227 x 20
#>     year month   day dep_time sched_dep_time dep_delay arr_time
#>    <int> <int> <int>    <int>          <int>     <dbl>    <int>
#>  1  2013     1    10        3           2359         4      426
#>  2  2013     1    10       16           2359        17      447
#>  3  2013     1    10      450            500       -10      634
#>  4  2013     1    10      520            525        -5      813
#>  5  2013     1    10      530            530         0      824
#>  6  2013     1    10      531            540        -9      832
#>  7  2013     1    10      535            540        -5     1015
#>  8  2013     1    10      546            600       -14      645
#>  9  2013     1    10      549            600       -11      652
#> 10  2013     1    10      550            600       -10      649
#> # … with 11,217 more rows, and 13 more variables: sched_arr_time <int>,
#> #   arr_delay <dbl>, carrier <chr>, flight <int>, tailnum <chr>,
#> #   origin <chr>, dest <chr>, air_time <dbl>, distance <dbl>, hour <dbl>,
#> #   minute <dbl>, time_hour <dttm>, name <chr>
…
