Create a dm object from data frames • dm
…
their abbreviated codes (carrier)

airports indicates the ports of departure (origin) and of destination (dest)

weather contains meteorological information at each hour

planes describes characteristics of the aircraft

Once we’ve loaded {nycflights13}, the aforementioned tables are all in our work environment, ready to be accessed.

library(nycflights13)

airports

#> # A tibble: 1,458 x 8
#>    faa   name                    lat    lon   alt    tz dst   tzone        
#>    <chr> <chr>                 <dbl>  <dbl> <dbl> <dbl> <chr> <chr>        
#>  1 04G   Lansdowne Airport      41.1  -80.6  1044    -5 A     America/New_…
#>  2 06A   Moton Field Municipa…  32.5  -85.7   264    -6 A     America/Chic…
#>  3 06C   Schaumburg Regional    42.0  -88.1   801    -6 A     America/Chic…
#>  4 06N   Randall Airport        41.4  -74.4   523    -5 A     America/New_…
#>  5 09J   Jekyll Island Airport  31.1  -81.4    11    -5 A     America/New_…
#>  6 0A9   Elizabethton Municip…  36.4  -82.2  1593    -5 A     America/New_…
#>  7 0G6   Williams County Airp…  41.5  -84.5   730    -5 A     America/New_…
#>  8 0G7   Finger Lakes Regiona…  42.9  -76.8   492    -5 A     America/New_…
#>  9 0P2   Shoestring Aviation …  39.8  -76.6  1000    -5 U     America/New_…
#> 10 0S9   Jefferson County Intl  48.1 -123.    108    -8 A     America/Los_…
#> # … with 1,448 more rows
…
