Copy tables to and from a database • dm
…
In the above code, the select() statement isolates the columns we need for our model. collect() works similarly to compute() by forcing the execution of the underlying SQL query, but it returns the results as a local tibble.

Below, the local tibble, loans_df, is used to estimate the linear model and the residuals are stored along with the original associated id in a new tibble, loans_residuals. The id column is necessary to link the new tibble to the tables in the dm it was collected from.

model <- lm(amount ~ duration + A3, data = loans_df)

loans_residuals <- tibble::tibble(
  id = loans_df$id,
  resid = unname(residuals(model))
)

loans_residuals

#> # A tibble: 682 × 2
#>       id   resid
#>    <int>   <dbl>
#>  1  4959 -31912.
#>  2  4961 -27336.
#>  3  4962 -30699.
#>  4  4967  63621.
#>  5  4968 -94811.
#>  6  4973  59036.
#>  7  4986  41901.
#>  8  4988 123392.
#>  9  4989 147157.
#> 10  4990  33377.
#> # … with 672 more rows
…
