Introduction to relational data models • dm
…
#> ── Conflicts ───────────────────────────────────── tidyverse_conflicts() ──
#> ✖ dplyr::filter() masks dm::filter(), stats::filter()
#> ✖ dplyr::lag()    masks stats::lag()

library(dm)
library(nycflights13)

flights %>%
  left_join(airlines, by = "carrier") %>%
  left_join(planes, by = "tailnum") %>%
  left_join(airports, by = c("origin" = "faa"))

#> # A tibble: 336,776 x 35
#>    year.x month   day dep_time sched_dep_time dep_delay arr_time
#>     <int> <int> <int>    <int>          <int>     <dbl>    <int>
#>  1   2013     1     1      517            515         2      830
#>  2   2013     1     1      533            529         4      850
#>  3   2013     1     1      542            540         2      923
#>  4   2013     1     1      544            545        -1     1004
#>  5   2013     1     1      554            600        -6      812
#>  6   2013     1     1      554            558        -4      740
#>  7   2013     1     1      555            600        -5      913
#>  8   2013     1     1      557            600        -3      709
#>  9   2013     1     1      557            600        -3      838
#> 10   2013     1     1      558            600        -2      753
#> # … with 336,766 more rows, and 28 more variables: sched_arr_time <int>,
#> #   arr_delay <dbl>, carrier <chr>, flight <int>, tailnum <chr>,
#> #   origin <chr>, dest <chr>, air_time <dbl>, distance <dbl>, hour <dbl>,
#> #   minute <dbl>, time_hour <dttm>, name.x <chr>, year.y <int>,
#> #   type <chr>, manufacturer <chr>, model <chr>, engines <int>,
#> #   seats <int>, speed <int>, engine <chr>, name.y <chr>, lat <dbl>,
#> #   lon <dbl>, alt <dbl>, tz <dbl>, dst <chr>, tzone <chr>
…
airlines %>%
  filter(carrier == "UA")

#> # A tibble: 1 x 2
#>   carrier name                  
#>   <chr>   <chr>                 
#> 1 UA      United broke my guitar

# ...propagates to all related records
flights %>%
  left_join(airlines) %>%
  select(flight, name)
#> Joining, by = "carrier"

#> # A tibble: 336,776 x 2
#>    flight name                    
#>     <int> <chr>                   
#>  1   1545 United broke my guitar  
#>  2   1714 United broke my guitar  
#>  3   1141 American Airlines Inc.  
#>  4    725 JetBlue Airways         
#>  5    461 Delta Air Lines Inc.    
#>  6   1696 United broke my guitar  
#>  7    507 JetBlue Airways         
#>  8   5708 ExpressJet Airlines Inc.
#>  9     79 JetBlue Airways         
#> 10    301 American Airlines Inc.  
#> # … with 336,766 more rows

Another way to demonstrate normalization is splitting a table into two parts.

Let’s look at the planes table, which consists of 3322 individual tail numbers and corresponding information for the specific airplane, like the year it was manufactured or the average cruising speed.

The function decompose_table() extracts two new tables and creates a new key model_id, that links both tables.

This results in a parent_table and a child_table that differ massively in the number of rows:

planes %>%
  decompose_table(model_id, model, manufacturer, type, engines, seats, manufacturer, speed)

#> $child_table
#> # A tibble: 3,322 x 4
#>    tailnum  year engine    model_id
#>    <chr>   <int> <chr>        <int>
#>  1 N10156   2004 Turbo-fan      120
#>  2 N102UW   1998 Turbo-fan       93
#>  3 N103US   1999 Turbo-fan       93
#>  4 N104UW   1999 Turbo-fan       93
#>  5 N10575   2002 Turbo-fan      119
#>  6 N105UW   1999 Turbo-fan       93
#>  7 N107US   1999 Turbo-fan       93
#>  8 N108UW   1999 Turbo-fan       93
#>  9 N109UW   1999 Turbo-fan       93
#> 10 N110UW   1999 Turbo-fan       93
#> # … with 3,312 more rows
#> 
#> $parent_table
#> # A tibble: 147 x 7
#>    model_id model      manufacturer   type              engines seats speed
#>       <int> <chr>      <chr>          <chr>               <int> <int> <int>
#>  1      120 EMB-145XR  EMBRAER        Fixed wing multi…       2    55    NA
#>  2       93 A320-214   AIRBUS INDUST… Fixed wing multi…       2   182    NA
#>  3      119 EMB-145LR  EMBRAER        Fixed wing multi…       2    55    NA
#>  4       39 737-824    BOEING         Fixed wing multi…       2   149    NA
#>  5       68 767-332    BOEING         Fixed wing multi…       2   330    NA
#>  6       52 757-224    BOEING         Fixed wing multi…       2   178    NA
#>  7       94 A320-214   AIRBUS         Fixed wing multi…       2   182    NA
#>  8      112 CL-600-2D… BOMBARDIER INC Fixed wing multi…       2    95    NA
#>  9       30 737-724    BOEING         Fixed wing multi…       2   149    NA
#> 10       27 737-524    BOEING         Fixed wing multi…       2   149    NA
#> # … with 137 more rows
…
