…
``` r
my_dm_local <-
  my_dm_total %>%
  collect()

my_dm_local$total_loans
```

``` fansi
#> # A tibble: 682 × 2
#>    account_id total_amount
#>         <int>        <dbl>
#>  1          2        80952
#>  2         19        30276
#>  3         25        30276
#>  4         37       318480
#>  5         38       110736
#>  6         67       165960
#>  7         97       102876
#>  8        103       265320
#>  9        105       352704
#> 10        110       162576
#> # ℹ 672 more rows
```
…
