…
``` r
model <- lm(amount ~ duration + A3, data = loans_df)

loans_residuals <- tibble::tibble(
  id = loans_df$id,
  resid = unname(residuals(model))
)

loans_residuals
```

``` fansi
#> # A tibble: 682 × 2
#>       id   resid
#>    <int>   <dbl>
#>  1  4959 -31912.
#>  2  4961 -27336.
#>  3  4962 -30699.
#>  4  4967  63621.
#>  5  4968 -94811.
#>  6  4973  59036.
#>  7  4986  41901.
#>  8  4988 123392.
#>  9  4989 147157.
#> 10  4990  33377.
#> # ℹ 672 more rows
```
…
