…
nycflights13_df <-
  flights %>%
  left_join(airlines, by = "carrier") %>%
  left_join(planes, by = "tailnum") %>%
  left_join(airports, by = c("origin" = "faa")) %>%
  left_join(weather, by = c("origin", "time_hour"))

nycflights13_df
```

``` fansi
#> # A tibble: 336,776 × 48
#>    year.x month.x day.x dep_time sched_dep_time dep_delay arr_time
#>     <int>   <int> <int>    <int>          <int>     <dbl>    <int>
#>  1   2013       1     1      517            515         2      830
#>  2   2013       1     1      533            529         4      850
#>  3   2013       1     1      542            540         2      923
#>  4   2013       1     1      544            545        -1     1004
#>  5   2013       1     1      554            600        -6      812
#>  6   2013       1     1      554            558        -4      740
#>  7   2013       1     1      555            600        -5      913
#>  8   2013       1     1      557            600        -3      709
#>  9   2013       1     1      557            600        -3      838
#> 10   2013       1     1      558            600        -2      753
#> # ℹ 336,766 more rows
#> # ℹ 41 more variables: sched_arr_time <int>, arr_delay <dbl>,
#> #   carrier <chr>, flight <int>, tailnum <chr>, origin <chr>, dest <chr>,
#> #   air_time <dbl>, distance <dbl>, hour.x <dbl>, minute <dbl>,
#> #   time_hour <dttm>, name.x <chr>, year.y <int>, type <chr>,
#> #   manufacturer <chr>, model <chr>, engines <int>, seats <int>,
#> #   speed <int>, engine <chr>, name.y <chr>, lat <dbl>, lon <dbl>, …
```
…
``` r

# ...propagates to all related records
flights %>%
  left_join(airlines) %>%
  select(flight, name)
```

``` fansi
#> Joining with `by = join_by(carrier)`
```

``` fansi
#> # A tibble: 336,776 × 2
#>    flight name                    
#>     <int> <chr>                   
#>  1   1545 United broke my guitar  
#>  2   1714 United broke my guitar  
#>  3   1141 American Airlines Inc.  
#>  4    725 JetBlue Airways         
#>  5    461 Delta Air Lines Inc.    
#>  6   1696 United broke my guitar  
#>  7    507 JetBlue Airways         
#>  8   5708 ExpressJet Airlines Inc.
#>  9     79 JetBlue Airways         
#> 10    301 American Airlines Inc.  
#> # ℹ 336,766 more rows
```
…
This results in a `parent_table` and a `child_table` that differ
massively in the number of rows:

``` r
planes %>%
  decompose_table(model_id, model, manufacturer, type, engines, seats, speed)
```

``` fansi
#> $child_table
#> # A tibble: 3,322 × 4
#>    tailnum  year engine    model_id
#>    <chr>   <int> <chr>        <int>
#>  1 N10156   2004 Turbo-fan      120
#>  2 N102UW   1998 Turbo-fan       93
#>  3 N103US   1999 Turbo-fan       93
#>  4 N104UW   1999 Turbo-fan       93
#>  5 N10575   2002 Turbo-fan      119
#>  6 N105UW   1999 Turbo-fan       93
#>  7 N107US   1999 Turbo-fan       93
#>  8 N108UW   1999 Turbo-fan       93
#>  9 N109UW   1999 Turbo-fan       93
#> 10 N110UW   1999 Turbo-fan       93
#> # ℹ 3,312 more rows
#> 
#> $parent_table
#> # A tibble: 147 × 7
#>    model_id model       manufacturer     type           engines seats speed
#>       <int> <chr>       <chr>            <chr>            <int> <int> <int>
#>  1      120 EMB-145XR   EMBRAER          Fixed wing mu…       2    55    NA
#>  2       93 A320-214    AIRBUS INDUSTRIE Fixed wing mu…       2   182    NA
#>  3      119 EMB-145LR   EMBRAER          Fixed wing mu…       2    55    NA
#>  4       39 737-824     BOEING           Fixed wing mu…       2   149    NA
#>  5       68 767-332     BOEING           Fixed wing mu…       2   330    NA
#>  6       52 757-224     BOEING           Fixed wing mu…       2   178    NA
#>  7       94 A320-214    AIRBUS           Fixed wing mu…       2   182    NA
#>  8      112 CL-600-2D24 BOMBARDIER INC   Fixed wing mu…       2    95    NA
#>  9       30 737-724     BOEING           Fixed wing mu…       2   149    NA
#> 10       27 737-524     BOEING           Fixed wing mu…       2   149    NA
#> # ℹ 137 more rows
```
…
