…
``` r
flights_keyed <-
  flights_dm %>%
  dm_get_tables(keyed = TRUE)

# The print output for a `dm_keyed_tbl` looks very much like that from a normal
# `tibble`, with additional details about keys.
flights_keyed$flights
```

``` fansi
#> # A tibble: 1,761 × 19
#> # Keys:     — | 0 | 5
#>     year month   day dep_time sched_dep_time dep_delay arr_time
#>    <int> <int> <int>    <int>          <int>     <dbl>    <int>
#>  1  2013     1    10        3           2359         4      426
#>  2  2013     1    10       16           2359        17      447
#>  3  2013     1    10      450            500       -10      634
#>  4  2013     1    10      520            525        -5      813
#>  5  2013     1    10      530            530         0      824
#>  6  2013     1    10      531            540        -9      832
#>  7  2013     1    10      535            540        -5     1015
#>  8  2013     1    10      546            600       -14      645
#>  9  2013     1    10      549            600       -11      652
#> 10  2013     1    10      550            600       -10      649
#> # ℹ 1,751 more rows
#> # ℹ 12 more variables: sched_arr_time <int>, arr_delay <dbl>,
#> #   carrier <chr>, flight <int>, tailnum <chr>, origin <chr>, dest <chr>,
#> #   air_time <dbl>, distance <dbl>, hour <dbl>, minute <dbl>,
#> #   time_hour <dttm>
```

``` r
flights_tbl_mutate <-
  flights_keyed$flights %>%
  mutate(am_pm_dep = if_else(dep_time < 1200, "am", "pm"), .after = dep_time)

flights_tbl_mutate
```

``` fansi
#> # A tibble: 1,761 × 20
#> # Keys:     — | 0 | 5
#>     year month   day dep_time am_pm_dep sched_dep_time dep_delay arr_time
#>    <int> <int> <int>    <int> <chr>              <int>     <dbl>    <int>
#>  1  2013     1    10        3 am                  2359         4      426
#>  2  2013     1    10       16 am                  2359        17      447
#>  3  2013     1    10      450 am                   500       -10      634
#>  4  2013     1    10      520 am                   525        -5      813
#>  5  2013     1    10      530 am                   530         0      824
#>  6  2013     1    10      531 am                   540        -9      832
#>  7  2013     1    10      535 am                   540        -5     1015
#>  8  2013     1    10      546 am                   600       -14      645
#>  9  2013     1    10      549 am                   600       -11      652
#> 10  2013     1    10      550 am                   600       -10      649
#> # ℹ 1,751 more rows
#> # ℹ 12 more variables: sched_arr_time <int>, arr_delay <dbl>,
#> #   carrier <chr>, flight <int>, tailnum <chr>, origin <chr>, dest <chr>,
#> #   air_time <dbl>, distance <dbl>, hour <dbl>, minute <dbl>,
#> #   time_hour <dttm>
```
…
### Use case 2: Creation of a surrogate key

The same course of action could, for example, be employed to create a
surrogate key for a table, a synthetic simple key that replaces a
compound key. We can do this for the `weather` table.

``` r
library(tidyr)

flights_keyed$weather
```

``` fansi
#> # A tibble: 144 × 15
#> # Keys:     `origin`, `time_hour` | 1 | 0
#>    origin  year month   day  hour  temp  dewp humid wind_dir wind_speed
#>    <chr>  <int> <int> <int> <int> <dbl> <dbl> <dbl>    <dbl>      <dbl>
#>  1 EWR     2013     1    10     0  41    32    70.1      230       8.06
#>  2 EWR     2013     1    10     1  39.0  30.0  69.9      210       9.21
#>  3 EWR     2013     1    10     2  39.0  28.9  66.8      230       6.90
#>  4 EWR     2013     1    10     3  39.9  27.0  59.5      270       5.75
#>  5 EWR     2013     1    10     4  41    26.1  55.0      320       6.90
#>  6 EWR     2013     1    10     5  41    26.1  55.0      300      12.7 
#>  7 EWR     2013     1    10     6  39.9  25.0  54.8      280       6.90
#>  8 EWR     2013     1    10     7  41    25.0  52.6      330       6.90
#>  9 EWR     2013     1    10     8  43.0  25.0  48.7      330       8.06
#> 10 EWR     2013     1    10     9  45.0  23    41.6      320      17.3 
#> # ℹ 134 more rows
#> # ℹ 5 more variables: wind_gust <dbl>, precip <dbl>, pressure <dbl>,
#> #   visib <dbl>, time_hour <dttm>
```
…
joined_flights_dm <- dm(
  flights_plane_type = joined_flights_tbl,
  !!!flights_keyed[c("airlines", "airports", "weather")]
)

# this is how the table looks now
joined_flights_dm$flights_plane_type
```

``` fansi
#> # A tibble: 1,761 × 11
#>     year month   day dep_time carrier flight tailnum origin dest 
#>    <int> <int> <int>    <int> <chr>    <int> <chr>   <chr>  <chr>
#>  1  2013     1    10        3 B6         727 N571JB  JFK    BQN  
#>  2  2013     1    10       16 B6         739 N564JB  JFK    PSE  
#>  3  2013     1    10      450 US        1117 N171US  EWR    CLT  
#>  4  2013     1    10      520 UA        1018 N35204  EWR    IAH  
#>  5  2013     1    10      530 UA         404 N815UA  LGA    IAH  
#>  6  2013     1    10      531 AA        1141 N5EAAA  JFK    MIA  
#>  7  2013     1    10      535 B6         725 N784JB  JFK    BQN  
#>  8  2013     1    10      546 B6         380 N337JB  EWR    BOS  
#>  9  2013     1    10      549 EV        6055 N19554  LGA    IAD  
#> 10  2013     1    10      550 US        2114 N740UW  LGA    BOS  
#> # ℹ 1,751 more rows
#> # ℹ 2 more variables: time_hour <dttm>, plane_type <chr>
```
…
