Manipulating individual tables • dm
…
#> ── Metadata ───────────────────────────────────────────────────────────────
#> Tables: `airlines`, `airports`, `flights`, `planes`, `weather`
#> Columns: 53
#> Primary keys: 4
#> Foreign keys: 5

flights_keyed <-
  flights_dm %>% 
  dm_get_tables(keyed = TRUE)

# The print output for a `dm_keyed_tbl` looks very much like that from a normal
# `tibble`, with additional details about keys.
flights_keyed$flights

#> # A tibble: 1,761 × 19
#> # Keys:     — | 0 | 5
#>     year month   day dep_time sched_dep_t…¹ dep_d…² arr_t…³ sched…⁴ arr_d…⁵
#>    <int> <int> <int>    <int>         <int>   <dbl>   <int>   <int>   <dbl>
#>  1  2013     1    10        3          2359       4     426     437     -11
#>  2  2013     1    10       16          2359      17     447     444       3
#>  3  2013     1    10      450           500     -10     634     648     -14
#>  4  2013     1    10      520           525      -5     813     820      -7
#>  5  2013     1    10      530           530       0     824     829      -5
#>  6  2013     1    10      531           540      -9     832     850     -18
#>  7  2013     1    10      535           540      -5    1015    1017      -2
#>  8  2013     1    10      546           600     -14     645     709     -24
#>  9  2013     1    10      549           600     -11     652     724     -32
#> 10  2013     1    10      550           600     -10     649     703     -14
#> # … with 1,751 more rows, 10 more variables: carrier <chr>, flight <int>,
#> #   tailnum <chr>, origin <chr>, dest <chr>, air_time <dbl>,
#> #   distance <dbl>, hour <dbl>, minute <dbl>, time_hour <dttm>, and
#> #   abbreviated variable names ¹​sched_dep_time, ²​dep_delay, ³​arr_time,
#> #   ⁴​sched_arr_time, ⁵​arr_delay
#> # ℹ Use `print(n = ...)` to see more rows, and `colnames()` to see all variable names

flights_tbl_mutate <-
  flights_keyed$flights %>%
  mutate(am_pm_dep = if_else(dep_time < 1200, "am", "pm"), .after = dep_time)

flights_tbl_mutate

#> # A tibble: 1,761 × 20
#> # Keys:     — | 0 | 5
#>     year month   day dep_time am_pm_dep sched_dep…¹ dep_d…² arr_t…³ sched…⁴
#>    <int> <int> <int>    <int> <chr>           <int>   <dbl>   <int>   <int>
#>  1  2013     1    10        3 am               2359       4     426     437
#>  2  2013     1    10       16 am               2359      17     447     444
#>  3  2013     1    10      450 am                500     -10     634     648
#>  4  2013     1    10      520 am                525      -5     813     820
#>  5  2013     1    10      530 am                530       0     824     829
#>  6  2013     1    10      531 am                540      -9     832     850
#>  7  2013     1    10      535 am                540      -5    1015    1017
#>  8  2013     1    10      546 am                600     -14     645     709
#>  9  2013     1    10      549 am                600     -11     652     724
#> 10  2013     1    10      550 am                600     -10     649     703
#> # … with 1,751 more rows, 11 more variables: arr_delay <dbl>,
#> #   carrier <chr>, flight <int>, tailnum <chr>, origin <chr>, dest <chr>,
#> #   air_time <dbl>, distance <dbl>, hour <dbl>, minute <dbl>,
#> #   time_hour <dttm>, and abbreviated variable names ¹​sched_dep_time,
#> #   ²​dep_delay, ³​arr_time, ⁴​sched_arr_time
#> # ℹ Use `print(n = ...)` to see more rows, and `colnames()` to see all variable names
…
# The schematic view of the data model remains unchanged
dm_draw(updated_flights_dm)

<?xml version="1.0" encoding="UTF-8" standalone="no"?>

Use case 2: Creation of a surrogate key

The same course of action could, for example, be employed to create a surrogate key for a table, a synthetic simple key that replaces a compound key. We can do this for the weather table.

library(tidyr)

flights_keyed$weather

#> # A tibble: 144 × 15
#> # Keys:     `origin`, `time_hour` | 1 | 0
#>    origin  year month   day  hour  temp  dewp humid wind_…¹ wind_…² wind_…³
#>    <chr>  <int> <int> <int> <int> <dbl> <dbl> <dbl>   <dbl>   <dbl>   <dbl>
#>  1 EWR     2013     1    10     0  41    32    70.1     230    8.06    NA  
#>  2 EWR     2013     1    10     1  39.0  30.0  69.9     210    9.21    NA  
#>  3 EWR     2013     1    10     2  39.0  28.9  66.8     230    6.90    NA  
#>  4 EWR     2013     1    10     3  39.9  27.0  59.5     270    5.75    NA  
#>  5 EWR     2013     1    10     4  41    26.1  55.0     320    6.90    NA  
#>  6 EWR     2013     1    10     5  41    26.1  55.0     300   12.7     20.7
#>  7 EWR     2013     1    10     6  39.9  25.0  54.8     280    6.90    17.3
#>  8 EWR     2013     1    10     7  41    25.0  52.6     330    6.90    NA  
#>  9 EWR     2013     1    10     8  43.0  25.0  48.7     330    8.06    NA  
#> 10 EWR     2013     1    10     9  45.0  23    41.6     320   17.3     26.5
#> # … with 134 more rows, 4 more variables: precip <dbl>, pressure <dbl>,
#> #   visib <dbl>, time_hour <dttm>, and abbreviated variable names
#> #   ¹​wind_dir, ²​wind_speed, ³​wind_gust
#> # ℹ Use `print(n = ...)` to see more rows, and `colnames()` to see all variable names
…
joined_flights_dm <- dm(
  flights_plane_type = joined_flights_tbl,
  !!!flights_keyed[c("airlines", "airports", "weather")]
)

# this is how the table looks now
joined_flights_dm$flights_plane_type

#> # A tibble: 1,761 × 11
#>     year month   day dep_time carrier flight tailnum origin dest 
#>    <int> <int> <int>    <int> <chr>    <int> <chr>   <chr>  <chr>
#>  1  2013     1    10        3 B6         727 N571JB  JFK    BQN  
#>  2  2013     1    10       16 B6         739 N564JB  JFK    PSE  
#>  3  2013     1    10      450 US        1117 N171US  EWR    CLT  
#>  4  2013     1    10      520 UA        1018 N35204  EWR    IAH  
#>  5  2013     1    10      530 UA         404 N815UA  LGA    IAH  
#>  6  2013     1    10      531 AA        1141 N5EAAA  JFK    MIA  
#>  7  2013     1    10      535 B6         725 N784JB  JFK    BQN  
#>  8  2013     1    10      546 B6         380 N337JB  EWR    BOS  
#>  9  2013     1    10      549 EV        6055 N19554  LGA    IAD  
#> 10  2013     1    10      550 US        2114 N740UW  LGA    BOS  
#> # … with 1,751 more rows, and 2 more variables: time_hour <dttm>,
#> #   plane_type <chr>
#> # ℹ Use `print(n = ...)` to see more rows, and `colnames()` to see all variable names
…
