Joining in relational data models • dm
…
Joining Examples

Let’s look at some examples:

Add a column with airline names from the
airlines table to the flights
table.

dm_joined <-
  dm %>%
  dm_flatten_to_tbl(flights, airlines, .join = left_join)
dm_joined

#> # A tibble: 1,761 × 20
#>     year month   day dep_time sched_dep_t…¹ dep_d…² arr_t…³ sched…⁴ arr_d…⁵
#>    <int> <int> <int>    <int>         <int>   <dbl>   <int>   <int>   <dbl>
#>  1  2013     1    10        3          2359       4     426     437     -11
#>  2  2013     1    10       16          2359      17     447     444       3
#>  3  2013     1    10      450           500     -10     634     648     -14
#>  4  2013     1    10      520           525      -5     813     820      -7
#>  5  2013     1    10      530           530       0     824     829      -5
#>  6  2013     1    10      531           540      -9     832     850     -18
#>  7  2013     1    10      535           540      -5    1015    1017      -2
#>  8  2013     1    10      546           600     -14     645     709     -24
#>  9  2013     1    10      549           600     -11     652     724     -32
#> 10  2013     1    10      550           600     -10     649     703     -14
#> # … with 1,751 more rows, 11 more variables: carrier <chr>, flight <int>,
#> #   tailnum <chr>, origin <chr>, dest <chr>, air_time <dbl>,
#> #   distance <dbl>, hour <dbl>, minute <dbl>, time_hour <dttm>,
#> #   name <chr>, and abbreviated variable names ¹​sched_dep_time,
#> #   ²​dep_delay, ³​arr_time, ⁴​sched_arr_time, ⁵​arr_delay
…
An example with filtering on a dm and then merging:

Get all May 2013 flights from Delta Air Lines which didn’t
depart from John F. Kennedy International Airport in - and join all the
airports data into the flights table.

dm_nycflights13(subset = FALSE) %>%
  dm_filter(
    airlines = (name == "Delta Air Lines Inc."),
    airports = (name != "John F Kennedy Intl"),
    flights = (month == 5)
  ) %>% 
  dm_flatten_to_tbl(flights, airports, .join = left_join)

#> # A tibble: 2,340 × 26
#>     year month   day dep_time sched_dep_t…¹ dep_d…² arr_t…³ sched…⁴ arr_d…⁵
#>    <int> <int> <int>    <int>         <int>   <dbl>   <int>   <int>   <dbl>
#>  1  2013     5     1      554           600      -6     731     756     -25
#>  2  2013     5     1      555           600      -5     819     827      -8
#>  3  2013     5     1      603           610      -7     754     809     -15
#>  4  2013     5     1      622           630      -8     848     844       4
#>  5  2013     5     1      654           700      -6     931     950     -19
#>  6  2013     5     1      655           700      -5     944    1007     -23
#>  7  2013     5     1      656           705      -9    1005    1011      -6
#>  8  2013     5     1      658           700      -2     925     928      -3
#>  9  2013     5     1      743           745      -2    1014    1004      10
#> 10  2013     5     1      755           800      -5     929    1001     -32
#> # … with 2,330 more rows, 17 more variables: carrier <chr>, flight <int>,
#> #   tailnum <chr>, origin <chr>, dest <chr>, air_time <dbl>,
#> #   distance <dbl>, hour <dbl>, minute <dbl>, time_hour <dttm>,
#> #   name <chr>, lat <dbl>, lon <dbl>, alt <dbl>, tz <dbl>, dst <chr>,
#> #   tzone <chr>, and abbreviated variable names ¹​sched_dep_time,
#> #   ²​dep_delay, ³​arr_time, ⁴​sched_arr_time, ⁵​arr_delay
…
dm_nycflights13() %>%
  dm_select_tbl(-weather) %>%
  dm_flatten_to_tbl(.start = flights)
#> Renaming ambiguous columns: %>%
#>   dm_rename(flights, year.flights = year) %>%
#>   dm_rename(airlines, name.airlines = name) %>%
#>   dm_rename(airports, name.airports = name) %>%
#>   dm_rename(planes, year.planes = year)

#> # A tibble: 1,761 × 35
#>    year.flights month   day dep_t…¹ sched…² dep_d…³ arr_t…⁴ sched…⁵ arr_d…⁶
#>           <int> <int> <int>   <int>   <int>   <dbl>   <int>   <int>   <dbl>
#>  1         2013     1    10       3    2359       4     426     437     -11
#>  2         2013     1    10      16    2359      17     447     444       3
#>  3         2013     1    10     450     500     -10     634     648     -14
#>  4         2013     1    10     520     525      -5     813     820      -7
#>  5         2013     1    10     530     530       0     824     829      -5
#>  6         2013     1    10     531     540      -9     832     850     -18
#>  7         2013     1    10     535     540      -5    1015    1017      -2
#>  8         2013     1    10     546     600     -14     645     709     -24
#>  9         2013     1    10     549     600     -11     652     724     -32
#> 10         2013     1    10     550     600     -10     649     703     -14
#> # … with 1,751 more rows, 26 more variables: carrier <chr>, flight <int>,
#> #   tailnum <chr>, origin <chr>, dest <chr>, air_time <dbl>,
#> #   distance <dbl>, hour <dbl>, minute <dbl>, time_hour <dttm>,
#> #   name.airlines <chr>, name.airports <chr>, lat <dbl>, lon <dbl>,
#> #   alt <dbl>, tz <dbl>, dst <chr>, tzone <chr>, year.planes <int>,
#> #   type <chr>, manufacturer <chr>, model <chr>, engines <int>,
#> #   seats <int>, speed <int>, engine <chr>, and abbreviated variable …
…
Also, be aware that all column names need to be unique. The
dm_flatten_to_tbl() takes care of this by automatically
renaming the relevant columns and informs the user if any names were
changed,
e.g. dm_rename(airlines, airlines.name = name).

If you want to merge all tables, but get a nested table in return,
use dm_wrap_tbl() with pull_tbl() instead:

dm_nycflights13() %>%
  dm_wrap_tbl(root = flights) %>%
  pull_tbl(flights)

#> # A tibble: 1,761 × 23
#>     year month   day dep_time sched_dep_t…¹ dep_d…² arr_t…³ sched…⁴ arr_d…⁵
#>    <int> <int> <int>    <int>         <int>   <dbl>   <int>   <int>   <dbl>
#>  1  2013     1    10        3          2359       4     426     437     -11
#>  2  2013     1    10       16          2359      17     447     444       3
#>  3  2013     1    10      450           500     -10     634     648     -14
#>  4  2013     1    10      520           525      -5     813     820      -7
#>  5  2013     1    10      530           530       0     824     829      -5
#>  6  2013     1    10      531           540      -9     832     850     -18
#>  7  2013     1    10      535           540      -5    1015    1017      -2
#>  8  2013     1    10      546           600     -14     645     709     -24
#>  9  2013     1    10      549           600     -11     652     724     -32
#> 10  2013     1    10      550           600     -10     649     703     -14
#> # … with 1,751 more rows, 14 more variables: carrier <chr>, flight <int>,
#> #   tailnum <chr>, origin <chr>, dest <chr>, air_time <dbl>,
#> #   distance <dbl>, hour <dbl>, minute <dbl>, time_hour <dttm>,
#> #   airlines <packed[,1]>, airports <packed[,7]>, planes <packed[,8]>,
#> #   weather <packed[,13]>, and abbreviated variable names ¹​sched_dep_time,
#> #   ²​dep_delay, ³​arr_time, ⁴​sched_arr_time, ⁵​arr_delay
…
