…
Let’s look at some examples:

**Add a column with airline names from the `airlines` table to the
`flights` table.**

``` r
dm_joined <-
  dm %>%
  dm_flatten_to_tbl(flights, airlines, .join = left_join)
dm_joined
```

``` fansi
#> # A tibble: 1,761 × 20
#>     year month   day dep_time sched_dep_time dep_delay arr_time
#>    <int> <int> <int>    <int>          <int>     <dbl>    <int>
#>  1  2013     1    10        3           2359         4      426
#>  2  2013     1    10       16           2359        17      447
#>  3  2013     1    10      450            500       -10      634
#>  4  2013     1    10      520            525        -5      813
#>  5  2013     1    10      530            530         0      824
#>  6  2013     1    10      531            540        -9      832
#>  7  2013     1    10      535            540        -5     1015
#>  8  2013     1    10      546            600       -14      645
#>  9  2013     1    10      549            600       -11      652
#> 10  2013     1    10      550            600       -10      649
#> # ℹ 1,751 more rows
#> # ℹ 13 more variables: sched_arr_time <int>, arr_delay <dbl>,
#> #   carrier <chr>, flight <int>, tailnum <chr>, origin <chr>, dest <chr>,
#> #   air_time <dbl>, distance <dbl>, hour <dbl>, minute <dbl>,
#> #   time_hour <dttm>, name <chr>
```
…
``` r
dm_nycflights13(subset = FALSE) %>%
  dm_filter(
    airlines = (name == "Delta Air Lines Inc."),
    airports = (name != "John F Kennedy Intl"),
    flights = (month == 5)
  ) %>% 
  dm_flatten_to_tbl(flights, airports, .join = left_join)
```

``` fansi
#> # A tibble: 2,340 × 26
#>     year month   day dep_time sched_dep_time dep_delay arr_time
#>    <int> <int> <int>    <int>          <int>     <dbl>    <int>
#>  1  2013     5     1      554            600        -6      731
#>  2  2013     5     1      555            600        -5      819
#>  3  2013     5     1      603            610        -7      754
#>  4  2013     5     1      622            630        -8      848
#>  5  2013     5     1      654            700        -6      931
#>  6  2013     5     1      655            700        -5      944
#>  7  2013     5     1      656            705        -9     1005
#>  8  2013     5     1      658            700        -2      925
#>  9  2013     5     1      743            745        -2     1014
#> 10  2013     5     1      755            800        -5      929
#> # ℹ 2,330 more rows
#> # ℹ 19 more variables: sched_arr_time <int>, arr_delay <dbl>,
#> #   carrier <chr>, flight <int>, tailnum <chr>, origin <chr>, dest <chr>,
#> #   air_time <dbl>, distance <dbl>, hour <dbl>, minute <dbl>,
#> #   time_hour <dttm>, name <chr>, lat <dbl>, lon <dbl>, alt <dbl>,
#> #   tz <dbl>, dst <chr>, tzone <chr>
```
…
``` r
dm_nycflights13() %>%
  dm_select_tbl(-weather) %>%
  dm_flatten_to_tbl(.start = flights)
#> Renaming ambiguous columns: %>%
#>   dm_rename(flights, year.flights = year) %>%
#>   dm_rename(airlines, name.airlines = name) %>%
#>   dm_rename(airports, name.airports = name) %>%
#>   dm_rename(planes, year.planes = year)
```

``` fansi
#> # A tibble: 1,761 × 35
#>    year.flights month   day dep_time sched_dep_time dep_delay arr_time
#>           <int> <int> <int>    <int>          <int>     <dbl>    <int>
#>  1         2013     1    10        3           2359         4      426
#>  2         2013     1    10       16           2359        17      447
#>  3         2013     1    10      450            500       -10      634
#>  4         2013     1    10      520            525        -5      813
#>  5         2013     1    10      530            530         0      824
#>  6         2013     1    10      531            540        -9      832
#>  7         2013     1    10      535            540        -5     1015
#>  8         2013     1    10      546            600       -14      645
#>  9         2013     1    10      549            600       -11      652
#> 10         2013     1    10      550            600       -10      649
#> # ℹ 1,751 more rows
#> # ℹ 28 more variables: sched_arr_time <int>, arr_delay <dbl>,
#> #   carrier <chr>, flight <int>, tailnum <chr>, origin <chr>, dest <chr>,
#> #   air_time <dbl>, distance <dbl>, hour <dbl>, minute <dbl>,
#> #   time_hour <dttm>, name.airlines <chr>, name.airports <chr>, lat <dbl>,
#> #   lon <dbl>, alt <dbl>, tz <dbl>, dst <chr>, tzone <chr>,
#> #   year.planes <int>, type <chr>, manufacturer <chr>, model <chr>, …
```
…
If you want to merge all tables, but get a nested table in return, use
[`dm_wrap_tbl()`](https://dm.cynkra.com/dev/reference/dm_wrap_tbl.md)
with [`pull_tbl()`](https://dm.cynkra.com/dev/reference/pull_tbl.md)
instead:

``` r
dm_nycflights13() %>%
  dm_wrap_tbl(root = flights) %>%
  pull_tbl(flights)
```

``` fansi
#> # A tibble: 1,761 × 23
#>     year month   day dep_time sched_dep_time dep_delay arr_time
#>    <int> <int> <int>    <int>          <int>     <dbl>    <int>
#>  1  2013     1    10        3           2359         4      426
#>  2  2013     1    10       16           2359        17      447
#>  3  2013     1    10      450            500       -10      634
#>  4  2013     1    10      520            525        -5      813
#>  5  2013     1    10      530            530         0      824
#>  6  2013     1    10      531            540        -9      832
#>  7  2013     1    10      535            540        -5     1015
#>  8  2013     1    10      546            600       -14      645
#>  9  2013     1    10      549            600       -11      652
#> 10  2013     1    10      550            600       -10      649
#> # ℹ 1,751 more rows
#> # ℹ 16 more variables: sched_arr_time <int>, arr_delay <dbl>,
#> #   carrier <chr>, flight <int>, tailnum <chr>, origin <chr>, dest <chr>,
#> #   air_time <dbl>, distance <dbl>, hour <dbl>, minute <dbl>,
#> #   time_hour <dttm>, airlines <packed[,1]>, airports <packed[,7]>,
#> #   planes <packed[,8]>, weather <packed[,13]>
```
