…
as_dm(list(trees = trees, mtcars = mtcars))
#> ── Metadata ────────────────────────────────────────────────────────────────────
#> Tables: `trees`, `mtcars`
#> Columns: 14
#> Primary keys: 0
#> Foreign keys: 0

is_dm(dm_nycflights13())
#> [1] TRUE

dm_nycflights13()$airports
#> # A tibble: 86 × 8
#>    faa   name                                 lat    lon   alt    tz dst   tzone
#>    <chr> <chr>                              <dbl>  <dbl> <dbl> <dbl> <chr> <chr>
#>  1 ALB   Albany Intl                         42.7  -73.8   285    -5 A     Amer…
#>  2 ATL   Hartsfield Jackson Atlanta Intl     33.6  -84.4  1026    -5 A     Amer…
#>  3 AUS   Austin Bergstrom Intl               30.2  -97.7   542    -6 A     Amer…
#>  4 BDL   Bradley Intl                        41.9  -72.7   173    -5 A     Amer…
#>  5 BHM   Birmingham Intl                     33.6  -86.8   644    -6 A     Amer…
#>  6 BNA   Nashville Intl                      36.1  -86.7   599    -6 A     Amer…
#>  7 BOS   General Edward Lawrence Logan Intl  42.4  -71.0    19    -5 A     Amer…
#>  8 BTV   Burlington Intl                     44.5  -73.2   335    -5 A     Amer…
#>  9 BUF   Buffalo Niagara Intl                42.9  -78.7   724    -5 A     Amer…
#> 10 BUR   Bob Hope                            34.2 -118.    778    -8 A     Amer…
#> # ℹ 76 more rows

dm_nycflights13()["airports"]
#> ── Metadata ────────────────────────────────────────────────────────────────────
#> Tables: `airports`
#> Columns: 8
#> Primary keys: 1
#> Foreign keys: 0

dm_nycflights13()[["airports"]]
#> # A tibble: 86 × 8
#>    faa   name                                 lat    lon   alt    tz dst   tzone
#>    <chr> <chr>                              <dbl>  <dbl> <dbl> <dbl> <chr> <chr>
#>  1 ALB   Albany Intl                         42.7  -73.8   285    -5 A     Amer…
#>  2 ATL   Hartsfield Jackson Atlanta Intl     33.6  -84.4  1026    -5 A     Amer…
#>  3 AUS   Austin Bergstrom Intl               30.2  -97.7   542    -6 A     Amer…
#>  4 BDL   Bradley Intl                        41.9  -72.7   173    -5 A     Amer…
#>  5 BHM   Birmingham Intl                     33.6  -86.8   644    -6 A     Amer…
#>  6 BNA   Nashville Intl                      36.1  -86.7   599    -6 A     Amer…
#>  7 BOS   General Edward Lawrence Logan Intl  42.4  -71.0    19    -5 A     Amer…
#>  8 BTV   Burlington Intl                     44.5  -73.2   335    -5 A     Amer…
#>  9 BUF   Buffalo Niagara Intl                42.9  -78.7   724    -5 A     Amer…
#> 10 BUR   Bob Hope                            34.2 -118.    778    -8 A     Amer…
#> # ℹ 76 more rows
…
