Getting Started • dm
…
The fairly verbose output shows the three components of a dm object: the table source, the metadata, and row counts. FIXME: cdm_get_xxx(). Individual tables can be accessed with tbl().

src_tbls(flights_dm)
#> [1] "airlines" "airports" "flights"  "planes"   "weather"
tbl(flights_dm, "airports")

#> # A tibble: 1,458 x 8
#>    faa   name                    lat    lon   alt    tz dst   tzone        
#>    <chr> <chr>                 <dbl>  <dbl> <int> <dbl> <chr> <chr>        
#>  1 04G   Lansdowne Airport      41.1  -80.6  1044    -5 A     America/New_…
#>  2 06A   Moton Field Municipa…  32.5  -85.7   264    -6 A     America/Chic…
#>  3 06C   Schaumburg Regional    42.0  -88.1   801    -6 A     America/Chic…
#>  4 06N   Randall Airport        41.4  -74.4   523    -5 A     America/New_…
#>  5 09J   Jekyll Island Airport  31.1  -81.4    11    -5 A     America/New_…
#>  6 0A9   Elizabethton Municip…  36.4  -82.2  1593    -5 A     America/New_…
#>  7 0G6   Williams County Airp…  41.5  -84.5   730    -5 A     America/New_…
#>  8 0G7   Finger Lakes Regiona…  42.9  -76.8   492    -5 A     America/New_…
#>  9 0P2   Shoestring Aviation …  39.8  -76.6  1000    -5 U     America/New_…
#> 10 0S9   Jefferson County Intl  48.1 -123.    108    -8 A     America/Los_…
#> # … with 1,448 more rows
…
In the “Rows” part of the print-output, you can observe the reduction in the numbers of rows for all tables (apart from the – disconnected – weather table), corresponding to US Airways flights having started from JFK airport.

Which planes were used to service these flights?

tbl(us_flights_from_jfk, "planes")

#> # A tibble: 224 x 9
#>    tailnum  year type       manufacturer  model  engines seats speed engine
#>    <chr>   <int> <chr>      <chr>         <chr>    <int> <int> <int> <chr> 
#>  1 N102UW   1998 Fixed win… AIRBUS INDUS… A320-…       2   182    NA Turbo…
#>  2 N103US   1999 Fixed win… AIRBUS INDUS… A320-…       2   182    NA Turbo…
#>  3 N104UW   1999 Fixed win… AIRBUS INDUS… A320-…       2   182    NA Turbo…
#>  4 N105UW   1999 Fixed win… AIRBUS INDUS… A320-…       2   182    NA Turbo…
#>  5 N107US   1999 Fixed win… AIRBUS INDUS… A320-…       2   182    NA Turbo…
#>  6 N108UW   1999 Fixed win… AIRBUS INDUS… A320-…       2   182    NA Turbo…
#>  7 N109UW   1999 Fixed win… AIRBUS INDUS… A320-…       2   182    NA Turbo…
#>  8 N110UW   1999 Fixed win… AIRBUS INDUS… A320-…       2   182    NA Turbo…
#>  9 N111US   1999 Fixed win… AIRBUS INDUS… A320-…       2   182    NA Turbo…
#> 10 N112US   1999 Fixed win… AIRBUS INDUS… A320-…       2   182    NA Turbo…
#> # … with 214 more rows
…
Here we show an example using the in-memory SQLite-DB (so no key constraints are established):

it is not possible to execute the corresponding code in this vignette, since – just like with the transfer to a DB – only MSSQL and Postgres are so far supported, and there are no generally accessible DBs of this type available.

But anyhow, we can show, how the code looks like

Joining two tables

The cdm_join_tbl() function joins two immediately related tables in a data model. The definition of the primary and foreign key constraints is used to define the relationship.

flights_dm_with_keys %>%
  cdm_join_tbl(airlines, flights, join = left_join)

#> # A tibble: 336,776 x 20
#>    carrier name   year month   day dep_time sched_dep_time dep_delay
#>    <chr>   <chr> <int> <int> <int>    <int>          <int>     <dbl>
#>  1 9E      Ende…  2013     1     1      810            810         0
#>  2 9E      Ende…  2013     1     1     1451           1500        -9
#>  3 9E      Ende…  2013     1     1     1452           1455        -3
#>  4 9E      Ende…  2013     1     1     1454           1500        -6
#>  5 9E      Ende…  2013     1     1     1507           1515        -8
#>  6 9E      Ende…  2013     1     1     1530           1530         0
#>  7 9E      Ende…  2013     1     1     1546           1540         6
#>  8 9E      Ende…  2013     1     1     1550           1550         0
#>  9 9E      Ende…  2013     1     1     1552           1600        -8
#> 10 9E      Ende…  2013     1     1     1554           1600        -6
#> # … with 336,766 more rows, and 12 more variables: arr_time <int>,
#> #   sched_arr_time <int>, arr_delay <dbl>, flight <int>, tailnum <chr>,
#> #   origin <chr>, dest <chr>, air_time <dbl>, distance <dbl>, hour <dbl>,
#> #   minute <dbl>, time_hour <dttm>
…
