Flatten a part of a dm into a wide table — dm_flatten_to_tbl • dm
…
    See also

    Other flattening functions: 
dm_join_to_tbl()

    Examples

dm_nycflights13() %>%
  dm_select_tbl(-weather) %>%
  dm_flatten_to_tbl(flights)
#> Renamed columns:
#> * year -> flights.year, planes.year
#> * name -> airlines.name, airports.name
#> # A tibble: 1,761 x 35
#>    flights.year month   day dep_time sched_dep_time dep_delay arr_time
#>           <int> <int> <int>    <int>          <int>     <dbl>    <int>
#>  1         2013     1    10        3           2359         4      426
#>  2         2013     1    10       16           2359        17      447
#>  3         2013     1    10      450            500       -10      634
#>  4         2013     1    10      520            525        -5      813
#>  5         2013     1    10      530            530         0      824
#>  6         2013     1    10      531            540        -9      832
#>  7         2013     1    10      535            540        -5     1015
#>  8         2013     1    10      546            600       -14      645
#>  9         2013     1    10      549            600       -11      652
#> 10         2013     1    10      550            600       -10      649
#> # … with 1,751 more rows, and 28 more variables: sched_arr_time <int>,
#> #   arr_delay <dbl>, carrier <chr>, flight <int>, tailnum <chr>, origin <chr>,
#> #   dest <chr>, air_time <dbl>, distance <dbl>, hour <dbl>, minute <dbl>,
#> #   time_hour <dttm>, airlines.name <chr>, airports.name <chr>, lat <dbl>,
#> #   lon <dbl>, alt <dbl>, tz <dbl>, dst <chr>, tzone <chr>, planes.year <int>,
#> #   type <chr>, manufacturer <chr>, model <chr>, engines <int>, seats <int>,
#> #   speed <int>, engine <chr>
…
