Filtering — dm_filter • dm
…
Use dm_zoom_to() and dplyr::filter() to filter rows without registering
the filter.

    Examples

dm_nyc <- dm_nycflights13()
dm_nyc_filtered <-
  dm_nycflights13() %>%
  dm_filter(airports, name == "John F Kennedy Intl")

dm_apply_filters_to_tbl(dm_nyc_filtered, flights)

#> # A tibble: 3,661 x 19
#>     year month   day dep_time sched_dep_time dep_delay arr_time sched_arr_time
#>    <int> <int> <int>    <int>          <int>     <dbl>    <int>          <int>
#>  1  2013     1    10        3           2359         4      426            437
#>  2  2013     1    10       16           2359        17      447            444
#>  3  2013     1    10      531            540        -9      832            850
#>  4  2013     1    10      535            540        -5     1015           1017
#>  5  2013     1    10      553            600        -7      711            715
#>  6  2013     1    10      557            600        -3      855            912
#>  7  2013     1    10      557            600        -3      933            925
#>  8  2013     1    10      558            600        -2      844            906
#>  9  2013     1    10      559            600        -1      653            658
#> 10  2013     1    10      607            601         6      932            918
#> # … with 3,651 more rows, and 11 more variables: arr_delay <dbl>,
#> #   carrier <chr>, flight <int>, tailnum <chr>, origin <chr>, dest <chr>,
#> #   air_time <dbl>, distance <dbl>, hour <dbl>, minute <dbl>, time_hour <dttm>
…
