Low level operations • dm
…
Examples for functions of the ‘table_surgery’ family

Relevant functions are:

decompose_table(.data, new_id_column, ...)

reunite_parent_child(child_table, parent_table, id_column)

reunite_parent_child_from_list(list_of_parent_child_tables, id_column)

It might sometimes be helpful, to be able to split a table in a way, that a parent table (i.e. a lookup table) and a child table (containing the observations) are created, including a column (here: new_id_column) for mapping the child table observations to the parent table lookup rows. Basically, a foreign key relation would be created, pointing from the child table’s new_id_column to the parent table’s corresponding column, which can be seen as the parent table’s primary key column. The function decompose_table() does this, as you can see in the following example:

mtcars_tibble <- as_tibble(mtcars)
mtcars_tibble
#> # A tibble: 32 x 11
#>      mpg   cyl  disp    hp  drat    wt  qsec    vs    am  gear  carb
#>    <dbl> <dbl> <dbl> <dbl> <dbl> <dbl> <dbl> <dbl> <dbl> <dbl> <dbl>
#>  1  21       6  160    110  3.9   2.62  16.5     0     1     4     4
#>  2  21       6  160    110  3.9   2.88  17.0     0     1     4     4
#>  3  22.8     4  108     93  3.85  2.32  18.6     1     1     4     1
#>  4  21.4     6  258    110  3.08  3.22  19.4     1     0     3     1
#>  5  18.7     8  360    175  3.15  3.44  17.0     0     0     3     2
#>  6  18.1     6  225    105  2.76  3.46  20.2     1     0     3     1
#>  7  14.3     8  360    245  3.21  3.57  15.8     0     0     3     4
#>  8  24.4     4  147.    62  3.69  3.19  20       1     0     4     2
#>  9  22.8     4  141.    95  3.92  3.15  22.9     1     0     4     2
#> 10  19.2     6  168.   123  3.92  3.44  18.3     1     0     4     4
#> # … with 22 more rows
decomposed_table <- decompose_table(mtcars_tibble, am_gear_carb_id, am, gear, carb)
decomposed_table
#> $child_table
#> # A tibble: 32 x 9
#>      mpg am_gear_carb_id   cyl  disp    hp  drat    wt  qsec    vs
#>    <dbl>           <int> <dbl> <dbl> <dbl> <dbl> <dbl> <dbl> <dbl>
#>  1  21                 9     6  160    110  3.9   2.62  16.5     0
#>  2  21                 9     6  160    110  3.9   2.88  17.0     0
#>  3  22.8               7     4  108     93  3.85  2.32  18.6     1
#>  4  21.4               1     6  258    110  3.08  3.22  19.4     1
#>  5  18.7               2     8  360    175  3.15  3.44  17.0     0
#>  6  18.1               1     6  225    105  2.76  3.46  20.2     1
#>  7  14.3               4     8  360    245  3.21  3.57  15.8     0
#>  8  24.4               5     4  147.    62  3.69  3.19  20       1
#>  9  22.8               5     4  141.    95  3.92  3.15  22.9     1
#> 10  19.2               6     6  168.   123  3.92  3.44  18.3     1
#> # … with 22 more rows
…
A new column is created, with which the two tables can be joined by again, essentially creating the original table.

The functions which do the inverse operation, i.e. joining a parent and a child table and subsequently dropping the new_id_column, are reunite_parent_child() and reunite_parent_child_from_list(). The former takes as arguments two tables and the unquoted name of the ID column, and the latter takes as arguments a list of two tables plus the unquoted name of the ID column:

parent_table <- decomposed_table$parent_table
child_table <- decomposed_table$child_table
reunite_parent_child(child_table, parent_table, id_column = am_gear_carb_id)
#> # A tibble: 32 x 11
#>      mpg   cyl  disp    hp  drat    wt  qsec    vs    am  gear  carb
#>    <dbl> <dbl> <dbl> <dbl> <dbl> <dbl> <dbl> <dbl> <dbl> <dbl> <dbl>
#>  1  21       6  160    110  3.9   2.62  16.5     0     1     4     4
#>  2  21       6  160    110  3.9   2.88  17.0     0     1     4     4
#>  3  22.8     4  108     93  3.85  2.32  18.6     1     1     4     1
#>  4  21.4     6  258    110  3.08  3.22  19.4     1     0     3     1
#>  5  18.7     8  360    175  3.15  3.44  17.0     0     0     3     2
#>  6  18.1     6  225    105  2.76  3.46  20.2     1     0     3     1
#>  7  14.3     8  360    245  3.21  3.57  15.8     0     0     3     4
#>  8  24.4     4  147.    62  3.69  3.19  20       1     0     4     2
#>  9  22.8     4  141.    95  3.92  3.15  22.9     1     0     4     2
#> 10  19.2     6  168.   123  3.92  3.44  18.3     1     0     4     4
#> # … with 22 more rows
reunite_parent_child_from_list(decomposed_table, id_column = am_gear_carb_id)
#> # A tibble: 32 x 11
#>      mpg   cyl  disp    hp  drat    wt  qsec    vs    am  gear  carb
#>    <dbl> <dbl> <dbl> <dbl> <dbl> <dbl> <dbl> <dbl> <dbl> <dbl> <dbl>
#>  1  21       6  160    110  3.9   2.62  16.5     0     1     4     4
#>  2  21       6  160    110  3.9   2.88  17.0     0     1     4     4
#>  3  22.8     4  108     93  3.85  2.32  18.6     1     1     4     1
#>  4  21.4     6  258    110  3.08  3.22  19.4     1     0     3     1
#>  5  18.7     8  360    175  3.15  3.44  17.0     0     0     3     2
#>  6  18.1     6  225    105  2.76  3.46  20.2     1     0     3     1
#>  7  14.3     8  360    245  3.21  3.57  15.8     0     0     3     4
#>  8  24.4     4  147.    62  3.69  3.19  20       1     0     4     2
#>  9  22.8     4  141.    95  3.92  3.15  22.9     1     0     4     2
#> 10  19.2     6  168.   123  3.92  3.44  18.3     1     0     4     4
#> # … with 22 more rows
…
