Filtering in Relational Data Models • dm
…
Now we know that there are five tables in our dm object. But how are they connected? These relations are best displayed as a visualization of the entity-relationship model:

cdm_draw(dm)

<?xml version="1.0" encoding="UTF-8" standalone="no"?>You can look at a single table with tbl. To print the airports table, call

tbl(dm, "airports")

#> # A tibble: 1,458 x 8
#>    faa   name                    lat    lon   alt    tz dst   tzone        
#>    <chr> <chr>                 <dbl>  <dbl> <dbl> <dbl> <chr> <chr>        
#>  1 04G   Lansdowne Airport      41.1  -80.6  1044    -5 A     America/New_…
#>  2 06A   Moton Field Municipa…  32.5  -85.7   264    -6 A     America/Chic…
#>  3 06C   Schaumburg Regional    42.0  -88.1   801    -6 A     America/Chic…
#>  4 06N   Randall Airport        41.4  -74.4   523    -5 A     America/New_…
#>  5 09J   Jekyll Island Airport  31.1  -81.4    11    -5 A     America/New_…
#>  6 0A9   Elizabethton Municip…  36.4  -82.2  1593    -5 A     America/New_…
#>  7 0G6   Williams County Airp…  41.5  -84.5   730    -5 A     America/New_…
#>  8 0G7   Finger Lakes Regiona…  42.9  -76.8   492    -5 A     America/New_…
#>  9 0P2   Shoestring Aviation …  39.8  -76.6  1000    -5 U     America/New_…
#> 10 0S9   Jefferson County Intl  48.1 -123.    108    -8 A     America/Los_…
#> # … with 1,448 more rows
…
dm_delta_may %>% 
  cdm_apply_filters_to_tbl("airlines")

#> # A tibble: 1 x 2
#>   carrier name                
#>   <chr>   <chr>               
#> 1 DL      Delta Air Lines Inc.

Which planes were used to service these flights?

dm_delta_may %>% 
  cdm_apply_filters_to_tbl("planes")

#> # A tibble: 371 x 9
#>    tailnum  year type       manufacturer  model  engines seats speed engine
#>    <chr>   <int> <chr>      <chr>         <chr>    <int> <int> <int> <chr> 
#>  1 N137DL   1991 Fixed win… BOEING        767-3…       2   330    NA Turbo…
#>  2 N301DQ     NA Fixed win… BOEING        737-7…       2   149    NA Turbo…
#>  3 N301NB   1999 Fixed win… AIRBUS INDUS… A319-…       2   145    NA Turbo…
#>  4 N302DQ   2008 Fixed win… BOEING        737-7…       2   149    NA Turbo…
#>  5 N302NB   1999 Fixed win… AIRBUS INDUS… A319-…       2   145    NA Turbo…
#>  6 N303DQ   2008 Fixed win… BOEING        737-7…       2   149    NA Turbo…
#>  7 N304DQ   2008 Fixed win… BOEING        737-7…       2   149    NA Turbo…
#>  8 N305DQ   2008 Fixed win… BOEING        737-7…       2   149    NA Turbo…
#>  9 N306DQ   2009 Fixed win… BOEING        737-7…       2   149    NA Turbo…
#> 10 N307DQ   2009 Fixed win… BOEING        737-7…       2   149    NA Turbo…
#> # … with 361 more rows

And indeed, all included flights departed in May (month == 5):

dm_delta_may %>% 
  cdm_apply_filters_to_tbl("flights")

#> # A tibble: 2,340 x 19
#>     year month   day dep_time sched_dep_time dep_delay arr_time
#>    <int> <int> <int>    <int>          <int>     <dbl>    <int>
#>  1  2013     5     1      554            600        -6      731
#>  2  2013     5     1      555            600        -5      819
#>  3  2013     5     1      603            610        -7      754
#>  4  2013     5     1      622            630        -8      848
#>  5  2013     5     1      654            700        -6      931
#>  6  2013     5     1      655            700        -5      944
#>  7  2013     5     1      656            705        -9     1005
#>  8  2013     5     1      658            700        -2      925
#>  9  2013     5     1      743            745        -2     1014
#> 10  2013     5     1      755            800        -5      929
#> # … with 2,330 more rows, and 12 more variables: sched_arr_time <int>,
#> #   arr_delay <dbl>, carrier <chr>, flight <int>, tailnum <chr>,
#> #   origin <chr>, dest <chr>, air_time <dbl>, distance <dbl>, hour <dbl>,
#> #   minute <dbl>, time_hour <dttm>

For comparison, let’s review the equivalent manual query for flights in dplyr syntax:

airlines_filtered <- filter(airlines, name == "Delta Air Lines Inc.")
airports_filtered <- filter(airports, name != "John F Kennedy Intl")
flights %>%
  semi_join(airlines_filtered, by = "carrier") %>%
  semi_join(airports_filtered, by = c("origin" = "faa")) %>%
  filter(month == 5)

#> # A tibble: 2,340 x 19
#>     year month   day dep_time sched_dep_time dep_delay arr_time
#>    <int> <int> <int>    <int>          <int>     <dbl>    <int>
#>  1  2013     5     1      554            600        -6      731
#>  2  2013     5     1      555            600        -5      819
#>  3  2013     5     1      603            610        -7      754
#>  4  2013     5     1      622            630        -8      848
#>  5  2013     5     1      654            700        -6      931
#>  6  2013     5     1      655            700        -5      944
#>  7  2013     5     1      656            705        -9     1005
#>  8  2013     5     1      658            700        -2      925
#>  9  2013     5     1      743            745        -2     1014
#> 10  2013     5     1      755            800        -5      929
#> # … with 2,330 more rows, and 12 more variables: sched_arr_time <int>,
#> #   arr_delay <dbl>, carrier <chr>, flight <int>, tailnum <chr>,
#> #   origin <chr>, dest <chr>, air_time <dbl>, distance <dbl>, hour <dbl>,
#> #   minute <dbl>, time_hour <dttm>
…
