Getting Started • dm
…
With cdm_apply_filters() you can apply all filters and therefore update all tables in the dm, so that they contain only the rows relevant to the filters. Counting the rows you can see the effect of the filters:

us_flights_from_jfk <- cdm_apply_filters(us_flights_from_jfk_prepared)
us_flights_from_jfk %>% 
  cdm_get_tables() %>% 
  map_int(nrow)
#> airlines airports  flights   planes  weather 
#>        1        1     2995      224    26115

Or you can just pull out one of the tables from the dm, answering the question which planes were used to service US Airways flights having started from JFK airport:

tbl(us_flights_from_jfk, "planes")

#> # A tibble: 224 x 9
#>    tailnum  year type       manufacturer  model  engines seats speed engine
#>    <chr>   <int> <chr>      <chr>         <chr>    <int> <int> <int> <chr> 
#>  1 N102UW   1998 Fixed win… AIRBUS INDUS… A320-…       2   182    NA Turbo…
#>  2 N103US   1999 Fixed win… AIRBUS INDUS… A320-…       2   182    NA Turbo…
#>  3 N104UW   1999 Fixed win… AIRBUS INDUS… A320-…       2   182    NA Turbo…
#>  4 N105UW   1999 Fixed win… AIRBUS INDUS… A320-…       2   182    NA Turbo…
#>  5 N107US   1999 Fixed win… AIRBUS INDUS… A320-…       2   182    NA Turbo…
#>  6 N108UW   1999 Fixed win… AIRBUS INDUS… A320-…       2   182    NA Turbo…
#>  7 N109UW   1999 Fixed win… AIRBUS INDUS… A320-…       2   182    NA Turbo…
#>  8 N110UW   1999 Fixed win… AIRBUS INDUS… A320-…       2   182    NA Turbo…
#>  9 N111US   1999 Fixed win… AIRBUS INDUS… A320-…       2   182    NA Turbo…
#> 10 N112US   1999 Fixed win… AIRBUS INDUS… A320-…       2   182    NA Turbo…
#> # … with 214 more rows
…
The {dm} code is leaner, because the fk information is encoded in the object.

Joining two tables

The cdm_join_to_tbl() function joins two immediately related tables in a data model. The definition of the primary and foreign key constraints is used to define the relationship.

flights_dm_with_keys %>%
  cdm_join_to_tbl(airlines, flights, join = left_join)

#> # A tibble: 336,776 x 20
#>     year month   day dep_time sched_dep_time dep_delay arr_time
#>    <int> <int> <int>    <int>          <int>     <dbl>    <int>
#>  1  2013     1     1      517            515         2      830
#>  2  2013     1     1      533            529         4      850
#>  3  2013     1     1      542            540         2      923
#>  4  2013     1     1      544            545        -1     1004
#>  5  2013     1     1      554            600        -6      812
#>  6  2013     1     1      554            558        -4      740
#>  7  2013     1     1      555            600        -5      913
#>  8  2013     1     1      557            600        -3      709
#>  9  2013     1     1      557            600        -3      838
#> 10  2013     1     1      558            600        -2      753
#> # … with 336,766 more rows, and 13 more variables: sched_arr_time <int>,
#> #   arr_delay <dbl>, carrier <chr>, flight <int>, tailnum <chr>,
#> #   origin <chr>, dest <chr>, air_time <dbl>, distance <dbl>, hour <dbl>,
#> #   minute <dbl>, time_hour <dttm>, name <chr>
…
