…
``` r
joined_flights_dm <-
  flights_dm %>%
  dm_zoom_to(flights) %>%
  # let's first reduce the number of columns of flights
  select(-dep_delay:-arr_delay, -air_time:-time_hour) %>%
  # in the {dm}-method for the joins you can specify which columns you want to add to the zoomed table
  left_join(planes, select = c(tailnum, plane_type = type)) %>%
  dm_insert_zoomed("flights_plane_type")
# this is how the table looks now
joined_flights_dm$flights_plane_type
```

``` fansi
#> # A tibble: 1,761 × 11
#>     year month   day dep_time sched_dep_time carrier flight tailnum origin
#>    <int> <int> <int>    <int>          <int> <chr>    <int> <chr>   <chr> 
#>  1  2013     1    10        3           2359 B6         727 N571JB  JFK   
#>  2  2013     1    10       16           2359 B6         739 N564JB  JFK   
#>  3  2013     1    10      450            500 US        1117 N171US  EWR   
#>  4  2013     1    10      520            525 UA        1018 N35204  EWR   
#>  5  2013     1    10      530            530 UA         404 N815UA  LGA   
#>  6  2013     1    10      531            540 AA        1141 N5EAAA  JFK   
#>  7  2013     1    10      535            540 B6         725 N784JB  JFK   
#>  8  2013     1    10      546            600 B6         380 N337JB  EWR   
#>  9  2013     1    10      549            600 EV        6055 N19554  LGA   
#> 10  2013     1    10      550            600 US        2114 N740UW  LGA   
#> # ℹ 1,751 more rows
#> # ℹ 2 more variables: dest <chr>, plane_type <chr>
```
…
At each point, you can retrieve the zoomed table by calling
[`pull_tbl()`](https://dm.cynkra.com/reference/pull_tbl.md) on a
`dm_zoomed`. To use our last example once more:

``` r
flights_dm %>%
  dm_zoom_to(flights) %>%
  select(-dep_delay:-arr_delay, -air_time:-time_hour) %>%
  left_join(planes, select = c(tailnum, plane_type = type)) %>%
  pull_tbl()
```

``` fansi
#> # A tibble: 1,761 × 11
#>     year month   day dep_time sched_dep_time carrier flight tailnum origin
#>    <int> <int> <int>    <int>          <int> <chr>    <int> <chr>   <chr> 
#>  1  2013     1    10        3           2359 B6         727 N571JB  JFK   
#>  2  2013     1    10       16           2359 B6         739 N564JB  JFK   
#>  3  2013     1    10      450            500 US        1117 N171US  EWR   
#>  4  2013     1    10      520            525 UA        1018 N35204  EWR   
#>  5  2013     1    10      530            530 UA         404 N815UA  LGA   
#>  6  2013     1    10      531            540 AA        1141 N5EAAA  JFK   
#>  7  2013     1    10      535            540 B6         725 N784JB  JFK   
#>  8  2013     1    10      546            600 B6         380 N337JB  EWR   
#>  9  2013     1    10      549            600 EV        6055 N19554  LGA   
#> 10  2013     1    10      550            600 US        2114 N740UW  LGA   
#> # ℹ 1,751 more rows
#> # ℹ 2 more variables: dest <chr>, plane_type <chr>
```
…
