…
You can look at a single table with `tbl`. To print the `airports`
table, call

``` r
tbl(dm, "airports")
#> Warning: `tbl.dm()` was deprecated in dm 0.2.0.
#> ℹ Use `dm[[table_name]]` instead to access a specific table.
#> This warning is displayed once per session.
#> Call `lifecycle::last_lifecycle_warnings()` to see where this warning was
#> generated.
```

``` fansi
#> # A tibble: 86 × 8
#>    faa   name                            lat    lon   alt    tz dst   tzone
#>    <chr> <chr>                         <dbl>  <dbl> <dbl> <dbl> <chr> <chr>
#>  1 ALB   Albany Intl                    42.7  -73.8   285    -5 A     Amer…
#>  2 ATL   Hartsfield Jackson Atlanta I…  33.6  -84.4  1026    -5 A     Amer…
#>  3 AUS   Austin Bergstrom Intl          30.2  -97.7   542    -6 A     Amer…
#>  4 BDL   Bradley Intl                   41.9  -72.7   173    -5 A     Amer…
#>  5 BHM   Birmingham Intl                33.6  -86.8   644    -6 A     Amer…
#>  6 BNA   Nashville Intl                 36.1  -86.7   599    -6 A     Amer…
#>  7 BOS   General Edward Lawrence Loga…  42.4  -71.0    19    -5 A     Amer…
#>  8 BTV   Burlington Intl                44.5  -73.2   335    -5 A     Amer…
#>  9 BUF   Buffalo Niagara Intl           42.9  -78.7   724    -5 A     Amer…
#> 10 BUR   Bob Hope                       34.2 -118.    778    -8 A     Amer…
#> # ℹ 76 more rows
```
…
``` fansi
#> # A tibble: 1 × 2
#>   carrier name                
#>   <chr>   <chr>               
#> 1 DL      Delta Air Lines Inc.
```

Which planes were used to service these flights?

``` r
dm_delta_may$planes
```

``` fansi
#> # A tibble: 58 × 9
#>    tailnum  year type         manufacturer model engines seats speed engine
#>    <chr>   <int> <chr>        <chr>        <chr>   <int> <int> <int> <chr> 
#>  1 N302NB   1999 Fixed wing … AIRBUS INDU… A319…       2   145    NA Turbo…
#>  2 N304DQ   2008 Fixed wing … BOEING       737-…       2   149    NA Turbo…
#>  3 N306DQ   2009 Fixed wing … BOEING       737-…       2   149    NA Turbo…
#>  4 N307DQ   2009 Fixed wing … BOEING       737-…       2   149    NA Turbo…
#>  5 N309US   1990 Fixed wing … AIRBUS INDU… A320…       2   182    NA Turbo…
#>  6 N316US   1991 Fixed wing … AIRBUS INDU… A320…       2   182    NA Turbo…
#>  7 N317NB   2000 Fixed wing … AIRBUS INDU… A319…       2   145    NA Turbo…
#>  8 N318NB   2000 Fixed wing … AIRBUS INDU… A319…       2   145    NA Turbo…
#>  9 N318US   1991 Fixed wing … AIRBUS INDU… A320…       2   182    NA Turbo…
#> 10 N322NB   2001 Fixed wing … AIRBUS INDU… A319…       2   145    NA Turbo…
#> # ℹ 48 more rows
```
…
For comparison, let’s review the equivalent manual query for `flights`
in `dplyr` syntax:

``` r
airlines_filtered <- filter(airlines, name == "Delta Air Lines Inc.")
airports_filtered <- filter(airports, name != "John F Kennedy Intl")
flights %>%
  semi_join(airlines_filtered, by = "carrier") %>%
  semi_join(airports_filtered, by = c("origin" = "faa")) %>%
  filter(month == 5)
```

``` fansi
#> # A tibble: 2,340 × 19
#>     year month   day dep_time sched_dep_time dep_delay arr_time
#>    <int> <int> <int>    <int>          <int>     <dbl>    <int>
#>  1  2013     5     1      554            600        -6      731
#>  2  2013     5     1      555            600        -5      819
#>  3  2013     5     1      603            610        -7      754
#>  4  2013     5     1      622            630        -8      848
#>  5  2013     5     1      654            700        -6      931
#>  6  2013     5     1      655            700        -5      944
#>  7  2013     5     1      656            705        -9     1005
#>  8  2013     5     1      658            700        -2      925
#>  9  2013     5     1      743            745        -2     1014
#> 10  2013     5     1      755            800        -5      929
#> # ℹ 2,330 more rows
#> # ℹ 12 more variables: sched_arr_time <int>, arr_delay <dbl>,
#> #   carrier <chr>, flight <int>, tailnum <chr>, origin <chr>, dest <chr>,
#> #   air_time <dbl>, distance <dbl>, hour <dbl>, minute <dbl>,
#> #   time_hour <dttm>
```
…
